{

    

    "middleware": {

        "static": {
            "module": {
                "arguments": [ "path:./../dist" ]
            }
        },

        "router": {
            "module": {
                "arguments": [{ "directory": "path:./controllers" }]
            }
        },

        
        "expressView": {
            "priority": 100,
            "enabled": true,
            "module": {
                "name": "engine-munger/lib/expressView"
            }
        }
        

    }
}
